epoch,loss,hitRatio,ndcg
0,28833.078701525927,0.3389022777103303,0.17590656606185234
1,23258.10299769044,0.41654737528765834,0.23311410388814036
2,19207.76265977323,0.6074256618406508,0.3653997579349094
3,16136.838308736682,0.7148060231576278,0.4298568793666654
4,14371.885065712035,0.764382916266512,0.4615492008262665
5,13378.39810590446,0.7934296120463152,0.47958699670082533
6,12733.951645202935,0.8118941054958595,0.49282462178088826
7,12270.198989100754,0.8236722416511135,0.5017145854481552
8,11936.491460390389,0.8312283689999457,0.5076052138525391
9,11689.13777525723,0.837099316868103,0.513248185068169
10,11488.88396205753,0.8400529110116512,0.5166514394614293
11,11324.83123228699,0.8431514668309565,0.5196257734651059
12,11189.279881335795,0.845905738670339,0.520764368411901
13,11070.024189714342,0.847681519198362,0.5228590310619076
14,10979.506904475391,0.8487506115570695,0.5246609752775185
15,10895.008714746684,0.8510881185786507,0.5254892155455763
16,10830.970764502883,0.8510156377407723,0.526181598602515
17,10776.64584761113,0.8525920959646294,0.5265647816070342
18,10712.022081322968,0.8530088607824307,0.5271776108630815
19,10669.94220726192,0.8530269809919002,0.5270195019273297
20,10634.962913054973,0.8537336691612155,0.5276089172637637
21,10592.32811171189,0.8552195263377245,0.5280487134995508
22,10554.008914373815,0.855002083824089,0.5290077696563593
23,10524.759832262993,0.8562161378585537,0.5290644384423382
24,10503.499228008091,0.8559805751354486,0.5288532388827354
25,10474.458636716008,0.8566510228858245,0.5291800114093822
26,10466.8704059273,0.8571946291699132,0.5301425769822231
27,10440.555044323206,0.8577201152445322,0.5295354284932868
28,10439.296827215701,0.8572671100077917,0.5298556488495805
29,10407.343673586845,0.8573395908456701,0.5293893279228888
30,10393.074844248593,0.8572127493793829,0.5297659432239142
31,10371.113881837577,0.8576113939877145,0.5303312559974324
32,10367.294835690409,0.8578831971297588,0.530276856187715
33,10341.735746510327,0.8578469567108196,0.5302764080809975
34,10331.043650373816,0.8581912406907424,0.5304006377917975
35,10351.012156367302,0.8579919183865765,0.5306033794858852
36,10323.59643547237,0.8579919183865765,0.5310592678554189
37,10299.475502625108,0.858354322575969,0.5306613813755624
38,10299.05805047229,0.8583180821570298,0.5308518541560461
39,10302.008049361408,0.8584268034138475,0.5309836604694218
40,10285.643361970782,0.8590791309547539,0.5314930441083329
41,10273.510758213699,0.8589704096979361,0.5307882472263592
42,10260.986182145774,0.8586442459274829,0.5308144306236053
43,10254.412934277207,0.8588979288600577,0.5308615370996382
44,10260.358413737267,0.8581550002718031,0.530958622403055
45,10249.820504747331,0.8582456013191513,0.5306785782562535
46,10244.429873052984,0.8583180821570298,0.5307070323313943
47,10235.622566178441,0.8585174044611956,0.5311332882040471
48,10242.13663282618,0.8583905629949082,0.5308661469599197
49,10237.552996274084,0.8588616884411184,0.5307974284487733
50,10222.397903244942,0.858499284251726,0.5309242730851929
51,10219.787811543792,0.8587710873937703,0.5309797341027896
52,10205.574218373746,0.8589704096979361,0.531390597651235
53,10214.673009589314,0.8595683766104336,0.5315727786175112
54,10198.933465518057,0.8601301031039918,0.531245572253611
55,10198.45620340854,0.8594415351441462,0.5312555655463986
56,10202.366061594337,0.8592965734683893,0.531310478753732
57,10187.758742913604,0.8590428905358146,0.5311378355837865
58,10201.932700313628,0.8591878522115716,0.5307867400749732
59,10179.892413042486,0.8586080055085437,0.5310451335703358
60,10189.649368397892,0.8592422128399805,0.5313676064042474
61,10173.286536201835,0.8591334915831627,0.5309542889363716
62,10179.073125734925,0.8597133382861906,0.5313023160046448
63,10162.740670207888,0.8592784532589197,0.5311462579099617
64,10163.385140679777,0.8589341692789969,0.531247445517229
65,10171.775472290814,0.8595502564009639,0.5313099854851877
66,10163.252990528941,0.8594596553536159,0.531512099679983
67,10163.487618625164,0.8597133382861906,0.5319100241458534
68,10158.543477132916,0.8599307807998261,0.5316447004904333
69,10159.064593471587,0.859314693677859,0.5315628862298859
70,10154.503411822021,0.859695218076721,0.5317621207772197
71,10154.679015215486,0.8597314584956602,0.5315491387627648
72,10147.192372500896,0.8597676989145995,0.5317090941262086
73,10140.765545353293,0.8594777755630855,0.5319089169055711
74,10137.15912534669,0.8602750647797488,0.5323482311421357
75,10137.961896650493,0.8601663435229311,0.5319416752327081
76,10149.1124464795,0.8601482233134615,0.5317540311501969
77,10138.565705530345,0.8601844637324008,0.5320272918370956
78,10137.811474498361,0.8602025839418703,0.5320032911618204
79,10132.656831223518,0.8600032616377046,0.531743201138467
80,10126.883829582483,0.8600395020566438,0.5314268487592763
81,10140.326199386269,0.86022070415134,0.5318025703396604
82,10117.712586518377,0.8601119828945223,0.5322487464544985
83,10126.502602633089,0.8599489010092957,0.5325231801312935
84,10121.748016614467,0.8602931849892185,0.5318935831078906
85,10126.24955322966,0.8598582999619475,0.5317050012915127
86,10122.617504827678,0.8597495787051298,0.5316146353747412
87,10116.45881151408,0.8600938626850526,0.5319793300269964
88,10119.70898848772,0.8599307807998261,0.5321338942583023
89,10108.682097960263,0.8598220595430083,0.5320457249569989
90,10123.487487215549,0.8593690543062678,0.5316736284774299
91,10108.784517440945,0.8594415351441462,0.5318472228900937
92,10103.80255888775,0.8599307807998261,0.5321456815968351
93,10109.821664925665,0.8597314584956602,0.5319077489314843
94,10109.37003083527,0.8599489010092957,0.5321441720567363
95,10109.74256138131,0.8599126605903564,0.5319821136815888
96,10103.23212190345,0.8599670212187653,0.5319385733338425
97,10108.88722473383,0.8596770978672513,0.5318760944171436
98,10115.166760805994,0.8598220595430083,0.5322712639686082
99,10096.345347195864,0.859840179752478,0.5321474371553291
