epoch,loss,hitRatio,ndcg
0,17368.408121556044,0.4425496688741722,0.24622399533094644
1,13823.98561476171,0.447682119205298,0.24956689121124123
2,13751.13075247407,0.45,0.24976131352623307
3,13709.759952411056,0.44950331125827814,0.25207370401178875
4,13584.838560700417,0.4584437086092715,0.2552668167676131
5,13298.526189759374,0.47152317880794703,0.26191694584192965
6,12930.688198506832,0.4827814569536424,0.2690620186927973
7,12661.909238576889,0.4947019867549669,0.27451346231184554
8,12391.578068196774,0.509271523178808,0.28431269424235917
9,12113.023210093379,0.5243377483443709,0.2931838227435184
10,11853.87975141406,0.535430463576159,0.30042831775500356
11,11631.893778160214,0.546523178807947,0.3076090452873169
12,11427.198626175523,0.5581125827814569,0.31418763572947805
13,11260.271866187453,0.5675496688741721,0.3189168861196401
14,11121.859167590737,0.5771523178807947,0.3255001982585935
15,11003.36874832213,0.5827814569536424,0.3294890026047886
16,10897.341281339526,0.5933774834437087,0.33426550388429843
17,10789.980346441269,0.5990066225165563,0.3400692962740223
18,10680.760050237179,0.6043046357615894,0.34408080592016016
19,10546.336685866117,0.6134105960264901,0.3517509595043233
20,10443.93141540885,0.621523178807947,0.3575983847658336
21,10340.50960765779,0.6258278145695364,0.35809121991899384
22,10271.56881608814,0.6289735099337749,0.3609620178373
23,10207.795035213232,0.6362582781456954,0.3658390530637101
24,10141.17912452668,0.6385761589403973,0.3691109540751727
25,10111.971034355462,0.6420529801324504,0.37020421881171683
26,10070.103049963713,0.6432119205298014,0.37076204395760903
27,10056.481124423444,0.6475165562913907,0.37378863087777126
28,10021.514959059656,0.6485099337748345,0.37533085689309287
29,10008.29977349937,0.6490066225165563,0.3752747162315518
30,9998.253132589161,0.6513245033112582,0.3761738330192688
31,9978.752280950546,0.653476821192053,0.3784299423861495
32,9973.317876517773,0.6504966887417218,0.3789136459680695
33,9965.59029328823,0.652317880794702,0.37900187093090937
34,9960.400573290884,0.654635761589404,0.38036136094012507
35,9948.879956185818,0.6543046357615894,0.3793384094489358
36,9944.516635581851,0.654635761589404,0.3792955654416269
37,9935.708320088685,0.6554635761589404,0.38144809538510327
38,9930.104120105505,0.6587748344370861,0.3844963707199966
39,9911.548963055015,0.6543046357615894,0.38198090524695844
40,9911.198519222438,0.6579470198675497,0.3834848547403654
41,9900.884749546647,0.6594370860927152,0.38458537478817256
42,9893.084013469517,0.6559602649006623,0.38289612467137085
43,9892.076475717127,0.6569536423841059,0.3846156083542458
44,9879.846528746188,0.6566225165562913,0.3843605350278657
45,9872.25863802433,0.6591059602649006,0.38560287584322256
46,9868.809365063906,0.6594370860927152,0.3859772062672066
47,9854.948259659111,0.6576158940397351,0.3846977576057808
48,9851.805810756981,0.6586092715231788,0.38659298051922397
49,9838.886128030717,0.6609271523178808,0.38590294108439127
50,9830.732149355114,0.6591059602649006,0.3867320079074284
51,9820.597545035183,0.6617549668874172,0.3874900505398409
52,9821.512590266764,0.6624172185430464,0.3900430001425425
53,9801.701842859387,0.6624172185430464,0.3883283002513406
54,9789.989136189222,0.6644039735099337,0.38941562296700083
55,9793.481689490378,0.6617549668874172,0.3887587527347088
56,9785.296852968633,0.6620860927152318,0.38985306878443504
57,9771.353085443377,0.6652317880794701,0.3904799693995983
58,9767.491559840739,0.6642384105960265,0.39038494666568435
59,9760.09740126133,0.6639072847682119,0.3895409931548862
60,9750.224952839315,0.6667218543046357,0.3915426310792355
61,9744.552926309407,0.6667218543046357,0.39198807173785777
62,9735.352735169232,0.6677152317880795,0.39199014268677085
63,9723.629361316562,0.6690397350993378,0.39216257282117034
64,9723.372779287398,0.6649006622516557,0.3921731786506309
65,9719.819891735911,0.666887417218543,0.39166516611370744
66,9692.675592057407,0.6675496688741722,0.3928845912839278
67,9695.586312189698,0.6688741721854304,0.39353570967557455
68,9691.677190713584,0.6687086092715232,0.39428721691522617
69,9679.14417001605,0.6716887417218543,0.3945183571622119
70,9680.086825631559,0.670364238410596,0.39425227884566216
71,9674.066337160766,0.6678807947019868,0.3946516831568742
72,9667.878732264042,0.6718543046357616,0.395700600340507
73,9657.845881812274,0.6721854304635762,0.3954544744401482
74,9655.818269096315,0.6710264900662252,0.3958014217079557
75,9648.628791950643,0.6718543046357616,0.3957444167018896
76,9639.384454242885,0.6723509933774835,0.3960043506322222
77,9640.161723062396,0.6711920529801324,0.3951004887308147
78,9633.595199778676,0.6728476821192053,0.39597864207893885
79,9631.557197459042,0.6733443708609271,0.3970394125890843
80,9617.270988814533,0.6725165562913907,0.395766146426215
81,9613.707445964217,0.6728476821192053,0.39713603977985906
82,9600.24952995032,0.6756622516556291,0.39787278439825696
83,9603.327386558056,0.675,0.39735984703916843
84,9599.938457727432,0.6756622516556291,0.3975012190891673
85,9596.897927306592,0.6743377483443709,0.39707492276348444
86,9597.366130277514,0.6758278145695364,0.39820084528094035
87,9584.666092947125,0.6735099337748345,0.39758009786252146
88,9585.778498753905,0.675,0.3975811240868898
89,9577.753715537488,0.6730132450331126,0.39713689371697947
90,9567.1257013008,0.6771523178807947,0.3983344534156785
91,9566.962941668928,0.6768211920529801,0.39902107517259183
92,9571.975035317242,0.6758278145695364,0.39892375025767196
93,9562.572564005852,0.6764900662251656,0.39831573358837086
94,9563.800813809037,0.6764900662251656,0.3990010667378342
95,9561.92472974211,0.6758278145695364,0.39874086421382016
96,9549.670006044209,0.6756622516556291,0.3993825173755868
97,9550.279093809426,0.6753311258278145,0.3995879986155211
98,9542.816079057753,0.6764900662251656,0.39905884862884766
99,9536.277582742274,0.6764900662251656,0.398770809601307
