epoch,loss,hitRatio,ndcg
0,462.6388905122876,0.8159167919981155,0.5001833109416081
1,459.6173931546509,0.8113323790023013,0.4990857949908881
2,463.924418348819,0.8099371228731405,0.49888779952597906
3,464.4241896867752,0.809429757007991,0.49973374922651986
4,464.1046889387071,0.804501060032254,0.49790950203273376
5,462.68835156969726,0.8049721854784642,0.4976938788234005
6,458.91953099519014,0.8044104589849058,0.4984964671348752
7,450.83478957787156,0.7962563647235762,0.4950931863897277
8,444.37807742878795,0.8060775182561111,0.49985292012300414
9,437.9170639831573,0.8053345896678565,0.5004558920647677
10,432.1876615360379,0.7971804954065269,0.4973641723939296
11,424.6071142870933,0.8006414554152246,0.4986219124763331
12,419.62264805845916,0.7973798177106928,0.496301332818422
13,409.5247702486813,0.8008045373004512,0.49913661431803563
14,406.24624018743634,0.7937376556072988,0.4949880886396469
15,396.86168963089585,0.7912733071194303,0.4939935721417943
16,391.9925919715315,0.7931759291137406,0.4949971612775987
17,385.40401648916304,0.7908203018826898,0.49357629002742415
18,378.2563729584217,0.7939913385398735,0.49515097345786413
19,375.15881604142487,0.7858372442785438,0.49081303627241707
20,369.4880103059113,0.7876673854349756,0.49243917679287974
21,363.20236023515463,0.7874318227118705,0.49110174666762213
22,357.74096709676087,0.7912551869099607,0.49220837560491976
23,351.8034910913557,0.7826118469929513,0.4875017252072854
24,349.73781901970506,0.7889358000978491,0.49247444857612416
25,342.9288047570735,0.7801293782956131,0.48599856943515657
26,339.642510836944,0.7810716291880334,0.4878049548957452
27,335.32627652958035,0.7795676518020548,0.4873546662480673
28,332.8815174046904,0.7785347998622864,0.4873050293686257
29,328.6334568299353,0.778027433997137,0.48672323023621256
30,322.9798196721822,0.7703807056009567,0.4824582286600442
31,319.56865434907377,0.7744758729410912,0.48386030965504206
32,316.58164369128644,0.7709243118850454,0.482895296386589
33,314.0771829839796,0.7773932266657002,0.48485133752063914
34,310.76755926851183,0.7679344773225578,0.47925987321648816
35,309.58727908320725,0.7671190678964249,0.47805756154207896
36,306.3687420375645,0.7760704513744179,0.48502963276332645
37,302.82965813577175,0.7697102578505808,0.4809799763697852
38,300.8710909690708,0.7661949372134742,0.4796202256560622
39,299.7513473937288,0.764382916266512,0.4781463848302481
40,294.6248726155609,0.7675720731331654,0.47859778938148645
41,292.7305654603988,0.7632232228604563,0.47590438329369433
42,291.39214720297605,0.7614293221229638,0.47606749982619057
43,288.9085290255025,0.7638211897729538,0.47773940370054324
44,287.2549858475104,0.7548335658760216,0.4725364329396651
45,285.3452542629093,0.7625346549006107,0.47714274530578105
46,282.1856630835682,0.7642017141718158,0.47694299983261
47,279.8672310281545,0.756917389965028,0.47161690113770405
48,279.24502480681986,0.7696015365937631,0.4791812568164103
49,276.5493345828727,0.7651077246452969,0.47609302337635107
50,275.0840733926743,0.7602333882979687,0.47605962388138184
51,271.51009564939886,0.7634225451646222,0.4774607468759806
52,271.3844869816676,0.758638809864642,0.47469467991348585
53,271.2856803415343,0.7629332995089423,0.4774260417774312
54,268.3094866350293,0.7576965589722218,0.47452419184689065
55,266.4711710093543,0.7582401652563103,0.4737951525249601
56,264.77835331112146,0.7587294109119901,0.473134298669313
57,264.02335086930543,0.7596535415949408,0.4728700793332628
58,262.5148700783029,0.765343287368402,0.47836108831631013
59,260.0204195966944,0.7639661514487107,0.4772490910246642
60,260.9669947680086,0.7600884266222118,0.4755400385144232
61,260.11795398499817,0.7626071357384892,0.47597019021452397
62,257.4356465721503,0.7590736948919129,0.47511286766641914
63,255.49591284058988,0.7592911374055484,0.47558402517877935
64,255.54254794400185,0.762136010292279,0.4769335654554647
65,256.07501802872866,0.7567543080798014,0.4740478692026486
66,253.46694932691753,0.7608132350009966,0.47689645466377534
67,253.38066879473627,0.7596716618044105,0.47652567066614726
68,253.19399803690612,0.7586206896551724,0.47445364563684406
69,249.53876881767064,0.7598528638991067,0.4754122553754037
70,248.4020693609491,0.7600521862032725,0.47432331240046477
71,248.31204471737146,0.7566637070324533,0.4743859007573969
72,247.00977698992938,0.7586025694457028,0.4739070000308388
73,247.4383338978514,0.7555040136263975,0.4730624146168048
74,247.12750064674765,0.7603602297642561,0.47692674191857587
75,244.47672929242253,0.7513544856578542,0.470760232962737
76,244.204557065852,0.7579321216953268,0.47309024406043526
77,243.31206482462585,0.7525141790639099,0.47174711234771555
78,243.54783503245562,0.7550691285991266,0.4715177901893866
79,241.46046192385256,0.7533839491184519,0.4716848211320015
80,240.186884297058,0.7515538079620201,0.46808818811150427
81,243.23277093935758,0.754670483990795,0.4704613536995656
82,240.10765164159238,0.7609038360483448,0.47540159122554454
83,239.90259604156017,0.7506659176980086,0.46857982975819396
84,238.49257631599903,0.7582764056752496,0.4733439328927559
85,238.96104298252612,0.7577690398101002,0.4726814708805571
86,238.94344759359956,0.7561563411673039,0.47085881222393544
87,237.60463859513402,0.7570804718502546,0.47118755285233077
88,237.12265714537352,0.7613930817040245,0.47295337185540187
89,237.515931812115,0.7611212785619802,0.4733322959597278
90,236.64659243263304,0.7579864823237357,0.4719371451591803
91,235.7703701276332,0.7613568412850853,0.4739368077897941
92,234.79420919530094,0.7522967365502745,0.46816842258734614
93,234.3494201702997,0.7566455868229837,0.47103465472488304
94,233.0950528178364,0.7512638846105061,0.4675187620206738
95,233.36875981930643,0.7646184789896171,0.4769265059127534
96,232.2874135673046,0.7569536303839672,0.47209927407497315
97,232.2429529428482,0.75586641781579,0.4714291395408261
98,232.30403424799442,0.7611031583525105,0.4751695694067122
99,230.8273343294859,0.7543080798014025,0.4706806500345868
