epoch,loss,hitRatio,ndcg
0,12034.537680506706,0.4853135702248718,0.2587127886794176
1,8222.021399408579,0.6976824252088354,0.3825725061294898
2,7185.474519774318,0.7377462083461684,0.40948594344881056
3,6708.581187903881,0.7636762280971968,0.4253445604463336
4,6356.868011184037,0.7758348886513128,0.43607968041839995
5,6030.524763070047,0.7917806729845797,0.45374200753993715
6,5708.990347974002,0.7939913385398735,0.45716414471290107
7,5414.547685995698,0.7911827060720822,0.4585357558775157
8,5140.375461921096,0.7974341783391016,0.46800497397742336
9,4881.735918410122,0.7985576313262182,0.4653871185273952
10,4653.482300117612,0.7999891278743182,0.4733249124622934
11,4440.994176790118,0.8058963161614148,0.47785103415030006
12,4250.47139852494,0.7986663525830359,0.4800146186845183
13,4085.8069928735495,0.8075452552231503,0.48232008393754094
14,3936.252364780754,0.8072553318716365,0.4841498852966773
15,3794.5634365417063,0.8093572761701125,0.4872190021224469
16,3669.2447779774666,0.8093391559606429,0.4837897149380533
17,3559.0511345118284,0.8142134923079711,0.49027749224046485
18,3448.3845179975033,0.8119122257053292,0.48901828671287706
19,3350.4055979140103,0.813688006233352,0.49425054602373814
20,3257.1049051471055,0.8165509993295522,0.49396935228253386
21,3159.202595718205,0.8128001159693407,0.49269257542568745
22,3077.090522252023,0.8120753075905558,0.4930034514325649
23,2998.3689432553947,0.8093935165890518,0.49208612250528594
24,2930.369001444429,0.8124558319894178,0.49279340858477505
25,2855.255124732852,0.814503415659485,0.49410076530582536
26,2796.8580316081643,0.8095928388932176,0.49311271879880997
27,2732.4965503085405,0.8106619312519253,0.49433018845761734
28,2679.115424161777,0.8043923387754363,0.49145441516481814
29,2622.115623470396,0.8063130809792162,0.4920975535571329
30,2566.798159191385,0.8122927501041912,0.49627188177695497
31,2516.8726049046963,0.8065848841212604,0.4930113498282525
32,2474.9242119453847,0.8042836175186185,0.4903131329545493
33,2430.8489369582385,0.8049721854784642,0.4911499132499767
34,2396.4766889996827,0.8051352673636907,0.49290451129332963
35,2370.4280888289213,0.8029064815989273,0.4891065677928113
36,2323.0192240811884,0.802199793429612,0.4907328397364377
37,2283.023363765329,0.8014387446318879,0.49028047322794505
38,2256.6962557230145,0.7959120807436534,0.48626056330058604
39,2235.418761787936,0.79846703027887,0.4882390121147819
40,2204.5128093212843,0.8010582202330259,0.4897952375382579
41,2179.67356386967,0.7998622864080309,0.48840139275254624
42,2147.644259369001,0.7982495877652346,0.488293948823696
43,2120.7298752591014,0.7948611085944154,0.48666660735265194
44,2105.5768603794277,0.79368329497889,0.48605855389965774
45,2086.5227348785847,0.800333411854241,0.48895293974791576
46,2066.675981109962,0.794734267128128,0.4870419801660704
47,2039.86301094573,0.7918350336129886,0.4841890638488011
48,2035.417954850942,0.7975428995959193,0.48868430235632315
49,2015.8436775393784,0.7909471433489771,0.4829562783246271
50,2001.0081620411947,0.792487361153895,0.4856112006642103
51,1981.4038097681478,0.7928316451338178,0.4839048932372371
52,1962.068668638356,0.793773896026238,0.4852858498799214
53,1958.4457722632214,0.7949879500607027,0.48557722144082893
54,1940.31239531748,0.7909109029300379,0.48223727344238004
55,1930.2871390264481,0.7908384220921594,0.483804892713828
56,1918.4208661857992,0.7895881276387555,0.48473518218991707
57,1906.2700112396851,0.7905122583217062,0.4823940584692901
58,1896.1974396118894,0.7846594306630185,0.47881429346023513
59,1883.4943822082132,0.7854385996702122,0.4795997914563205
60,1881.444944806397,0.7893888053345897,0.48268411812601153
61,1864.2630204632878,0.7902223349701922,0.4841916801090197
62,1864.6180331017822,0.7890445213546669,0.4834048777857911
63,1850.818156153895,0.7884284342326997,0.48228510627806276
64,1842.051083668135,0.7827024480402993,0.47833378483538963
65,1835.1874737013131,0.7850037146429413,0.47786256484452916
66,1830.0682052471675,0.780419301647127,0.47700236834800047
67,1831.1535773919895,0.7850943156902894,0.47982364443774084
68,1817.4164746357128,0.7856016815554387,0.4797008134475927
69,1808.8166214795783,0.7867251345425553,0.4819940356900573
70,1799.9130656113848,0.7815789950531828,0.4759167720260227
71,1794.7932715564966,0.7844782285683223,0.47951547470272915
72,1796.063294867985,0.7832822947433272,0.478719885097598
73,1791.2109290054068,0.7811803504448511,0.4784807354443878
74,1782.176641959697,0.782285683222498,0.4780405236096851
75,1776.1090902620926,0.7844238679399134,0.47885352233147876
76,1780.9889014381915,0.7780999148350155,0.473272651913856
77,1773.1153550911695,0.7747839165020748,0.4713234825735329
78,1770.7248364733532,0.774149709170638,0.4715787804351979
79,1762.4620383596048,0.7804555420660663,0.47626011107614086
80,1759.235676907003,0.7761972928407053,0.4738819440738214
81,1752.7462112521753,0.7782811169297117,0.47485563955672516
82,1756.7177480440587,0.7788066030043307,0.4770884577433763
83,1744.513939505443,0.7721202457100405,0.470928842385283
84,1748.4192038476467,0.779513291173646,0.4765162850534208
85,1743.806978162378,0.7752369217388153,0.4715501221586587
86,1741.5392787298188,0.7682062804646022,0.4686020217665174
87,1739.8588954498991,0.7743852718937431,0.47240095735229576
88,1740.4227410126477,0.7746570750357874,0.473060849074087
89,1732.5898000244051,0.7700545418305036,0.4698930541944262
90,1738.492219761014,0.7656150905104463,0.4656654869806527
91,1724.7496461379342,0.7667023030786236,0.46593801567949755
92,1729.0949646467343,0.7703444651820175,0.4697291503874086
93,1718.4875362361781,0.7728994147172341,0.4723032439397554
94,1718.8700268883258,0.7724645296899633,0.4730109053212307
95,1720.3209259733558,0.7750375994346494,0.47226519520892796
96,1715.8081366717815,0.7680613187888452,0.46891903395837736
97,1717.2681444818154,0.7574066356207078,0.46050246854394905
98,1721.21922015585,0.7691122909380832,0.4686649489815872
99,1713.5183724067174,0.7675358327142262,0.47030740400198356
