epoch,loss,hitRatio,ndcg
0,13987.392446309328,0.4463576158940397,0.2500331565960654
1,13087.193071752787,0.5220198675496689,0.28934596537709484
2,12031.386115089059,0.5670529801324503,0.31820296510453694
3,11317.452211290598,0.598841059602649,0.3410427600890715
4,10811.374883830547,0.6211920529801325,0.3551330363758154
5,10462.970025643706,0.6367549668874172,0.36568611127601514
6,10176.482979811728,0.6437086092715232,0.3739332171002622
7,9965.443979561329,0.6577814569536424,0.3848384901359281
8,9784.298790603876,0.6591059602649006,0.38811667180578086
9,9637.70086735487,0.66158940397351,0.39284931578950916
10,9507.30164950341,0.6609271523178808,0.3928372711476358
11,9386.842003583908,0.6644039735099337,0.4006973377650174
12,9280.471769951284,0.6690397350993378,0.4013657572582561
13,9178.894841171801,0.672682119205298,0.40258103655462724
14,9091.365549787879,0.6675496688741722,0.3991048297984912
15,9007.18719483912,0.6701986754966888,0.40106163787850513
16,8930.073068216443,0.6733443708609271,0.40370952888855577
17,8844.914860546589,0.6672185430463576,0.39566915046692136
18,8791.615787774324,0.6706953642384106,0.4003392760512617
19,8711.454233638942,0.6695364238410596,0.4020700324754638
20,8652.821961268783,0.6652317880794701,0.399057905086074
21,8583.31676581502,0.6670529801324503,0.3999946171968736
22,8530.58424808085,0.6678807947019868,0.40241560422950295
23,8475.681204095483,0.6639072847682119,0.39939914029268864
24,8412.504532717168,0.6672185430463576,0.4036447936441752
25,8371.709255002439,0.668046357615894,0.4030739178644087
26,8314.19644575566,0.6619205298013245,0.3981551786407431
27,8280.615298308432,0.6650662251655629,0.4021727703315261
28,8221.039804413915,0.675,0.40723908481784465
29,8179.817491739988,0.6665562913907285,0.40372557586246877
30,8143.559578828514,0.6629139072847682,0.3980381170946983
31,8097.636432558298,0.6584437086092715,0.40183809378157825
32,8062.75444059819,0.6586092715231788,0.3983001117009161
33,8030.016346596181,0.6594370860927152,0.4005616068874181
34,7988.3516743555665,0.6571192052980133,0.3991554884779283
35,7950.906513541937,0.6557947019867549,0.3999277420011761
36,7918.159033976495,0.6609271523178808,0.4006831250964244
37,7881.509445682168,0.6572847682119205,0.39990713405743056
38,7852.761989608407,0.6538079470198676,0.3978868734499611
39,7807.9555051624775,0.652317880794702,0.3965207158560393
40,7784.739558145404,0.6594370860927152,0.3971909388226092
41,7752.16622774303,0.6632450331125828,0.4011176278105176
42,7720.128498308361,0.6468543046357615,0.39322196864270803
43,7702.279043920338,0.660430463576159,0.4002992681865974
44,7669.773345679045,0.6556291390728477,0.39741621577812825
45,7642.659275725484,0.661092715231788,0.4008346484325352
46,7622.123903505504,0.6587748344370861,0.39641604484039433
47,7592.081251852214,0.6544701986754967,0.39495732531366123
48,7574.047542847693,0.6533112582781457,0.3957252271186086
49,7549.067257352173,0.6486754966887417,0.39234824750999103
50,7515.648892767727,0.6514900662251656,0.3951981738504663
51,7495.445649720728,0.6541390728476821,0.3932462594641571
52,7484.681272204965,0.6561258278145695,0.3972397478614727
53,7448.23304463923,0.6576158940397351,0.39924461991510823
54,7429.9297971613705,0.6566225165562913,0.3944466638948106
55,7410.788691371679,0.6451986754966887,0.39083532246661284
56,7398.144913427532,0.648841059602649,0.39031074495629486
57,7365.708812259138,0.6501655629139073,0.39248018983587196
58,7347.662329234183,0.6536423841059603,0.3946532010741262
59,7329.243006616831,0.6491721854304636,0.39389134101786666
60,7306.314236700535,0.6481788079470199,0.3912331521302434
61,7288.957547828555,0.653476821192053,0.39364981936259996
62,7272.167973514646,0.6417218543046358,0.3880755406650964
63,7252.246102005243,0.6450331125827815,0.3901616372404865
64,7237.34200945124,0.6420529801324504,0.391466569649507
65,7228.385697744787,0.6384105960264901,0.38743938924494536
66,7191.997441478074,0.6380794701986755,0.38736555924301436
67,7183.670950371772,0.6451986754966887,0.3892324904066717
68,7166.453235376626,0.6468543046357615,0.39486826837777345
69,7151.7170699983835,0.6490066225165563,0.39234309583692617
70,7140.131905764341,0.6370860927152318,0.3873631843470776
71,7130.1732782498,0.6475165562913907,0.39170621951595197
72,7109.315904788673,0.6410596026490066,0.38857005413505075
73,7088.20128697902,0.6392384105960265,0.3895181506980612
74,7077.94663830474,0.6377483443708609,0.38491777898732277
75,7061.72098235786,0.6369205298013245,0.3852752403867906
76,7050.705304797739,0.6379139072847683,0.3867214262330642
77,7036.576173700392,0.6455298013245033,0.3913231992545396
78,7019.900622710586,0.6415562913907285,0.390581828707124
79,7010.799506988376,0.6443708609271523,0.3900454430079708
