epoch,loss,hitRatio,ndcg
0,9882.032505527139,0.6635761589403973,0.38782968344866375
1,9673.603115022182,0.6649006622516557,0.3879789092086022
2,9615.000942260027,0.6660596026490067,0.3896379306471468
3,9591.639319881797,0.6673841059602649,0.388497089947178
4,9567.921266578138,0.6673841059602649,0.38921192003619404
5,9564.693402789533,0.6690397350993378,0.3900816649663533
6,9540.754010796547,0.670364238410596,0.3904236424695527
7,9537.114258021116,0.6713576158940397,0.39061314521428864
8,9527.133600756526,0.6718543046357616,0.39041087637150773
9,9520.709261082113,0.6685430463576159,0.3892649192105647
10,9517.861708037555,0.6697019867549668,0.3906124207439966
11,9515.53415030241,0.6698675496688742,0.39006917849410894
12,9500.997829124331,0.671523178807947,0.3906487738120145
13,9497.60963910073,0.6708609271523179,0.39064248751637465
14,9488.787707798183,0.6710264900662252,0.390641981751224
15,9488.587921358645,0.6700331125827814,0.39120406025343113
16,9478.112472087145,0.6690397350993378,0.3900675476275544
17,9473.758342981339,0.6685430463576159,0.38974057993672084
18,9484.419783562422,0.6718543046357616,0.39152917970113565
19,9467.374723225832,0.6677152317880795,0.3896935018417729
