epoch,loss,hitRatio,ndcg
0,20023.167552232742,0.6977549060467139,0.39249737172174837
1,12626.003953300416,0.8326779857575154,0.5125790861130768
2,10478.083417065442,0.8572852302172613,0.5320945537651575
3,9801.733955360949,0.8659104499248012,0.5410855699122872
4,9428.723415698856,0.8673600666823709,0.5428390915862062
5,9157.78775761649,0.8680848750611557,0.5445673364653533
6,8901.78687876463,0.8681935963179734,0.5458518622614413
7,8660.1678157188,0.8700056172649356,0.5481098390890236
8,8447.98619787395,0.8688278036494101,0.5474552092810672
9,8237.726592198014,0.8697156939134216,0.5492617411808554
10,8046.772228058428,0.8682479569463823,0.5481982414539223
11,7854.918695865199,0.8666533785130556,0.5492428072901498
12,7667.738612152636,0.8641527896062479,0.5480743049724838
13,7470.184595189989,0.8607643104354287,0.5447754473521422
14,7275.455850837752,0.8562523782774929,0.540170620636124
15,7067.478801673278,0.854241035026365,0.5394528289199224
16,6876.813405843452,0.8503995506188051,0.5378162895630478
17,6680.918237304315,0.8464674651638973,0.5367415000630553
18,6469.756787827238,0.8461050609745049,0.5346529123718794
19,6278.09880345501,0.8394187036802145,0.52882209309029
20,6079.604158619419,0.8322431007302444,0.525433120241011
21,5881.811023691669,0.8306122818779785,0.5226465682594496
22,5658.516576169059,0.8269338793556453,0.5211169838384566
23,5466.350289854221,0.8200844401761285,0.5156260502813099
24,5280.335039616562,0.8136336456049432,0.5130542406310858
25,5099.80495908577,0.8087774294670846,0.5077004057759507
26,4931.631219713949,0.8046822621269502,0.5057608975742035
27,4773.073260408826,0.795169152155399,0.4991614486387259
28,4640.5172208845615,0.7899686520376176,0.4959854105219636
29,4490.217516168952,0.7891532426114846,0.4960415822207987
30,4355.740027870052,0.7853842390418033,0.49366618534923634
31,4251.815008554608,0.7806367441607625,0.48981157285452376
32,4132.655954335816,0.772573250946781,0.4836573021026629
33,4023.45984129468,0.7663036584702919,0.47941390784435284
34,3934.8492168490775,0.7680431985793755,0.47958819872821873
35,3864.4030240126885,0.7624078134343233,0.47593320478484513
36,3775.946372441016,0.7573703952017685,0.4739448656336894
37,3695.662559607066,0.7551416094370051,0.4712156999385977
38,3632.4997633406892,0.7523329769692138,0.46919420441879545
39,3574.3825105116703,0.7575878377154039,0.47157652966007313
40,3514.060727862641,0.7466794716146918,0.46372443970302657
41,3459.5386986988597,0.7404098791382029,0.4610225552668528
42,3420.2712113009766,0.7410984470980485,0.4618993718836796
43,3367.968520095572,0.7431641509775853,0.46168531284517444
44,3340.3198921275325,0.7356261438382228,0.4587474529278224
45,3299.799637080636,0.7381629731639697,0.45798090325018065
46,3263.128595498856,0.7298457970174135,0.45296641892191747
47,3229.4879019039217,0.7340496856143657,0.4560292143803496
48,3197.1572040286846,0.7193904361534419,0.4462568181837293
49,3160.6240505052265,0.7237211662166815,0.44958790340140503
50,3120.3632347427774,0.7227064344863826,0.4491626318135426
51,3099.4929474571254,0.718719988403066,0.44723391251982303
52,3064.2287086253054,0.7202058455795749,0.4489631679465883
53,3042.7206322271377,0.7147154221102796,0.44325850375304837
54,3021.864164456958,0.7153858698606556,0.44420131974340926
55,3005.6959607065655,0.7149872252523239,0.4435953339401431
56,2974.486378258327,0.7188649500788229,0.4459903046994168
57,2942.588133438956,0.7060358417743309,0.4386121642211891
58,2923.188726807246,0.710294090999692,0.44145721482636624
59,2905.3571972558275,0.7090437965462881,0.44200980812364205
60,2879.8814095600974,0.7104209324659793,0.44212982169438686
61,2851.193081545178,0.7037708155906283,0.4371800964853302
62,2832.795534787001,0.7018500733868483,0.4363230487757328
63,2813.8766244733706,0.6990052005001178,0.4349343137732326
64,2800.5627868478186,0.7028285646982079,0.4362162140597845
65,2780.8190756286494,0.7021581169478319,0.43739562671014753
66,2761.6026761485264,0.6977367858372443,0.4327563783882376
67,2745.013201057911,0.6972656603910341,0.43386533250899423
68,2735.569000856951,0.6965589722217189,0.43300874102100145
69,2713.300831007771,0.6952543171399062,0.43176314986958897
70,2689.900841754861,0.6951999565114972,0.4311564310808439
71,2666.9663072139956,0.6923550836247667,0.43090693830882876
72,2667.2880903717596,0.68836863754145,0.4281488106896898
73,2655.226977666607,0.689945095765307,0.42970783558415176
74,2639.383559128968,0.6956529617482378,0.43301844901726516
75,2616.4692961554974,0.6915034337796945,0.4295870148917596
76,2615.217579600867,0.6870821026691069,0.4262420688813295
77,2600.4740821602754,0.6908873466577273,0.4279415329260148
78,2595.9054353632964,0.6873720260206208,0.4260496146605153
79,2578.854021947249,0.6851613604653269,0.42402799009319403
80,2561.1640298424754,0.6840922681066193,0.42400103329777844
81,2553.7056491081603,0.6861398517766866,0.4248489455607285
82,2545.850002521649,0.6790910902930037,0.4201095968514314
83,2532.979105230421,0.6836392628698787,0.4254484528700405
84,2515.2993249373976,0.6851794806747966,0.4218267760900155
85,2511.30143431318,0.678891767988838,0.4206673558223081
86,2490.5099416614976,0.679797778462319,0.41911940033408746
87,2483.2767229583114,0.6831862576331382,0.4227663527556152
88,2481.2059393192176,0.679127330711943,0.42065148974468874
89,2468.446147266077,0.6816822802471597,0.4213169598415374
90,2468.554946446442,0.6774421512312683,0.4198351560260136
91,2439.35638013063,0.6801964230706506,0.42026446291688635
92,2431.0260116902646,0.6821534056933698,0.42029797212836634
93,2425.859523606021,0.672332252160835,0.415315900920135
94,2415.453025090159,0.6793991338539873,0.41822101362700326
95,2412.778906735941,0.6711544385453095,0.4140409756171004
96,2399.886578495032,0.6766448620146049,0.4161354183784273
97,2395.22425498371,0.6731476615869679,0.41343784838159187
98,2388.9603208501358,0.6705745918422817,0.413746206187687
99,2358.4308840704616,0.676065015311577,0.41641833206178075
