epoch,loss,hitRatio,ndcg
0,6555.370058009401,0.8690452461630457,0.5542831426485096
1,6518.9354827180505,0.8687372026020621,0.5557125568198567
2,6523.566813165322,0.8696794534944824,0.5544017992221214
3,6504.078926501796,0.8688278036494101,0.553755391066475
4,6454.748661132529,0.867541268777067,0.5533853828153201
5,6416.21657079272,0.8671245039592658,0.5511862236527916
6,6332.097150487825,0.8625582111729212,0.5472076883485548
7,6261.588493779302,0.8625582111729212,0.5485704655803287
8,6168.1531301774085,0.8594415351441462,0.5448349781825981
9,6049.791275316849,0.8550926848714371,0.5414113725997894
10,5928.85055302456,0.8498378241252469,0.5383053969006285
11,5831.05650456436,0.84777212024571,0.537064369494733
12,5694.194176889956,0.8450359686157972,0.5362928478759591
13,5532.72207823582,0.8391650207476399,0.5307947806629683
14,5409.599573515356,0.833602116440466,0.5280225077324816
15,5260.025226294994,0.8291626651204088,0.5228584314531104
16,5133.450653569773,0.8212622537916539,0.5190958585998052
17,5011.9847479444,0.8194139924257524,0.5176741900734861
18,4868.620518968441,0.8079257796220124,0.51095022420435
19,4760.259527229704,0.8003152916447714,0.5058440380453706
