epoch,loss,hitRatio,ndcg
0,9858.651096314192,0.10827814569536424,0.048897045021265836
1,9687.765048235655,0.18294701986754966,0.08951407829654424
2,7857.728081166744,0.402317880794702,0.22032249355776645
3,6840.5500883460045,0.44288079470198677,0.2438409708048014
4,6374.576469436288,0.4781456953642384,0.262226527541304
5,5885.517456397414,0.5188741721854304,0.2869913160632485
6,5468.875005632639,0.5559602649006623,0.3099830314979874
7,5148.309486046433,0.5869205298013245,0.3304458213083466
8,4887.426762193441,0.6094370860927152,0.34590367511333797
9,4682.076293826103,0.6233443708609272,0.35773567871964623
10,4519.160710960627,0.6294701986754967,0.3650849291578723
11,4387.309506885707,0.6408940397350993,0.37148170877070447
12,4279.251058898866,0.6491721854304636,0.3811452609865841
13,4184.239839181304,0.6571192052980133,0.38517725277984644
14,4105.9711975976825,0.6624172185430464,0.3896818335873156
15,4037.947572387755,0.6637417218543047,0.3924411344246345
16,3980.5826053991914,0.6688741721854304,0.3953534205355056
17,3927.3760292977095,0.6711920529801324,0.3958081088701587
18,3888.01972220093,0.6731788079470199,0.3974054124659965
19,3843.4855939671397,0.6759933774834437,0.4000585201180759
20,3808.473990596831,0.6771523178807947,0.4029336261869419
21,3771.029750198126,0.6751655629139073,0.40225292047274885
22,3746.331296056509,0.671523178807947,0.400512042638238
23,3721.212689653039,0.677317880794702,0.4051078461346749
24,3690.61898637563,0.6764900662251656,0.4063779396454231
25,3675.233957119286,0.6759933774834437,0.4048223695190255
26,3653.4060199707747,0.676158940397351,0.406750541887468
27,3637.6372448429465,0.6783112582781456,0.4075918368043701
28,3611.7078167051077,0.6794701986754967,0.4086067661146298
29,3599.861008197069,0.676158940397351,0.40806619058697696
30,3585.014665566385,0.6774834437086092,0.4079545282619801
31,3570.8915912285447,0.6763245033112583,0.40926392277734336
32,3559.6967444196343,0.6748344370860927,0.408247455785623
33,3547.6897538378835,0.6786423841059602,0.4120311694153902
34,3536.141307927668,0.6728476821192053,0.4092997510308141
35,3527.1028024703264,0.6756622516556291,0.40994007169278046
36,3517.068696461618,0.6759933774834437,0.40984380678576654
37,3508.181287623942,0.676158940397351,0.408977453849561
38,3499.9143253415823,0.6758278145695364,0.40918743067207614
39,3482.8328973203897,0.6779801324503312,0.4099400830350972
40,3480.789019331336,0.6779801324503312,0.4099840363985431
41,3474.890888236463,0.6766556291390728,0.4096047234772424
42,3464.620048262179,0.6743377483443709,0.40745080347035145
43,3460.6928946450353,0.6778145695364238,0.410430460367585
44,3453.943296544254,0.6781456953642384,0.4106177299042977
45,3445.051025390625,0.6798013245033112,0.4092953371192895
46,3441.446071021259,0.6812913907284768,0.4109461345063551
47,3433.3521714285016,0.6812913907284768,0.41202261825177416
48,3431.6104079037905,0.6778145695364238,0.40995865464911546
49,3425.7453237622976,0.6791390728476822,0.40944159896812393
50,3419.851560384035,0.680794701986755,0.41065356601299097
51,3414.240662395954,0.6779801324503312,0.4095257022706641
52,3414.3159202858806,0.6778145695364238,0.4076257165572001
53,3400.45481248945,0.6816225165562914,0.4123573883062377
54,3398.197141766548,0.6778145695364238,0.41090673003655076
55,3399.43268045038,0.6812913907284768,0.41285388028095815
56,3396.5395486801863,0.6791390728476822,0.4089229564475739
57,3392.07902046293,0.676158940397351,0.40893890394124893
58,3386.1438378617167,0.6774834437086092,0.4116027556556916
59,3382.1683949306607,0.672682119205298,0.4083719593894143
60,3376.8326524943113,0.6746688741721855,0.40767064912289186
61,3375.6678318604827,0.6788079470198676,0.4103615391628558
62,3371.2035724893212,0.6783112582781456,0.4097977718500281
63,3369.8268698453903,0.6791390728476822,0.4096868557032281
64,3362.116281375289,0.6791390728476822,0.4104138574879844
65,3367.4094904586673,0.6786423841059602,0.40920151303373464
66,3353.265186443925,0.6764900662251656,0.4092544277824613
67,3352.7978363782167,0.677317880794702,0.4086656166281962
68,3354.1756839603186,0.6766556291390728,0.4084353079567622
69,3347.800114236772,0.6791390728476822,0.4094337367543418
70,3347.5249095782638,0.6774834437086092,0.4100033211694268
71,3348.172019250691,0.677317880794702,0.4100184662619711
72,3345.673917159438,0.6746688741721855,0.4072798772987885
73,3340.2759703323245,0.6779801324503312,0.41116740995392725
74,3341.1421356350183,0.6756622516556291,0.41023488082805437
75,3339.8180954754353,0.6738410596026491,0.4070531496579156
76,3334.2896350622177,0.6753311258278145,0.40972737405711024
77,3334.952578097582,0.676158940397351,0.41125332815665283
78,3332.770739853382,0.675,0.40862881437083776
79,3329.857020139694,0.6759933774834437,0.40880288529909026
80,3325.634203530848,0.671523178807947,0.4062631347335849
81,3327.2082677856088,0.6733443708609271,0.4070004636881481
82,3319.459834381938,0.6769867549668874,0.4093506302846361
83,3316.224964030087,0.6716887417218543,0.40782193766799874
84,3317.434937365353,0.676158940397351,0.40992239083799187
85,3316.9173556789756,0.6735099337748345,0.40890263462032356
86,3317.2042199522257,0.675,0.40659455818072776
87,3313.2496698722243,0.676158940397351,0.41042340131483485
88,3312.754312224686,0.6740066225165563,0.4082579101234687
89,3307.9382793456316,0.6725165562913907,0.4081260519418488
90,3306.8033883348107,0.6730132450331126,0.4077732635994961
91,3309.542064525187,0.6741721854304635,0.40876004888535933
92,3307.36383215338,0.6771523178807947,0.41006992524475455
93,3305.9899228811264,0.6771523178807947,0.40932625686833934
94,3305.5745615437627,0.6720198675496689,0.4055152710090359
95,3308.435216754675,0.670364238410596,0.4056662803707177
96,3299.257921591401,0.6731788079470199,0.40856615900671883
97,3302.1475245952606,0.6758278145695364,0.40793803165061304
98,3298.750202536583,0.6748344370860927,0.4095566226189687
99,3294.920554637909,0.6745033112582781,0.4084706839164821
