epoch,loss,hitRatio,ndcg
0,14309.940365195274,0.09897258412307246,0.045167241988920186
1,14131.109929680824,0.10116512946889666,0.04571783246356962
2,14119.869399249554,0.10832261220939714,0.04965151055317474
3,14012.605742514133,0.15019841629369235,0.0737169399974334
4,13335.391014754772,0.2710964538750068,0.14436304984930615
5,11572.188587397337,0.4353380325076558,0.24133354230312748
6,9387.037821382284,0.598564879410006,0.3402812234292258
7,7635.248631983995,0.7127584394875605,0.41422116675079895
8,6539.217477723956,0.7700001812020947,0.45476062996752814
9,5939.685951203108,0.7965281678656205,0.4776253251196578
10,5599.873287670314,0.8141591316795622,0.49230346088428995
11,5373.03276322782,0.82383532353634,0.5013981359931197
12,5205.06272341311,0.832551144291228,0.5083634580088411
13,5078.157452486455,0.8384220921593853,0.5135859314699657
14,4973.70325422287,0.8408502002283147,0.5169149078125862
15,4884.745022907853,0.8455433344809467,0.5219046746248746
16,4815.992301091552,0.8471741533332126,0.5228537576119322
17,4756.584793590009,0.8506351133419102,0.5258258912041373
18,4696.055700875819,0.8513599217206951,0.5264475783757374
19,4653.8520565107465,0.852990740572961,0.5278042478529422
20,4614.606658600271,0.8547484008915143,0.5294057123543038
21,4576.1151083260775,0.8570496674941562,0.5316497038132619
22,4542.208309456706,0.8580100385960462,0.5323925330551575
23,4512.517354078591,0.8571946291699132,0.5320305459174008
24,4489.125686369836,0.858734846974831,0.5336276457850629
25,4464.326548881829,0.8590972511642234,0.5344672609385885
26,4449.228498272598,0.8602388243608096,0.536060310148443
27,4426.087873779237,0.8608730316922464,0.5365569103860341
28,4416.608195789158,0.8617609219562579,0.5366771834125381
29,4389.645216040313,0.8607643104354287,0.5361035691542554
30,4376.33972825855,0.8610179933680033,0.5373814583409504
31,4359.131083384156,0.861126714624821,0.5364124141744533
32,4347.7454641498625,0.8624857303350427,0.5386757680814648
33,4328.682606086135,0.8644064725388225,0.539448569365537
34,4319.49268823117,0.8636091833221592,0.5391085612932469
35,4322.435906045139,0.8637903854168554,0.5396031757352505
36,4303.7689868062735,0.8655480457354087,0.5415845400656698
37,4283.3526756726205,0.8662366136952543,0.5416453628671333
38,4282.866778410971,0.8636816641600377,0.5404646802513207
39,4278.401392988861,0.8651131607081378,0.5411569232115444
40,4265.661591507494,0.8658379690869227,0.5410821113943927
41,4255.617917954922,0.8640440683494301,0.5407574727643364
42,4246.586569562554,0.8648957181945023,0.5423387066950262
43,4237.516286276281,0.864913838403972,0.5417992841266639
44,4241.253366857767,0.8664902966278291,0.5432770245193813
45,4229.747122712433,0.8654030840596517,0.5428503868465692
46,4221.496971979737,0.8653668436407125,0.5425239688194582
47,4216.117475967854,0.8675775091960063,0.5441479058937765
48,4213.1233160384,0.8675050283581278,0.5444827964640135
49,4210.650046672672,0.8657654882490442,0.5426904661902017
50,4201.9365565776825,0.8660916520194973,0.544223778468458
51,4198.220364343375,0.8682841973653216,0.5456456890452518
52,4188.232073061168,0.8654030840596517,0.5430078542927866
53,4187.717064410448,0.8666896189319948,0.5449840431306963
54,4180.1433268636465,0.8665265370467683,0.5446707700720106
55,4178.149449497461,0.8670520231213873,0.5456511080407315
56,4173.88720041886,0.8687372026020621,0.5464349712368508
57,4169.039077941328,0.8633736205990541,0.5427583609356784
58,4171.105518423021,0.8676137496149455,0.5457162574980928
59,4161.364332191646,0.8635548226937504,0.5423768532824021
60,4166.3693112283945,0.8658017286679834,0.5445149583799656
61,4152.158577624708,0.8678493123380506,0.5465243470054139
62,4158.89046099782,0.8679399133853988,0.5472381924292975
63,4144.217592403293,0.8684110388316089,0.5473198575419337
64,4142.644448846579,0.8672875858444924,0.546017466109503
65,4147.700041402131,0.8658017286679834,0.5444493311698482
66,4142.525604810566,0.8684653994600178,0.5463348282074851
67,4145.9546205587685,0.8667983401888126,0.5468243322592101
68,4141.4281672388315,0.8640259481399605,0.5441916773959834
69,4139.134389679879,0.8650588000797289,0.5452105337948812
70,4134.554702986032,0.8660372913910884,0.5457979563330827
71,4131.054217468947,0.8669070614456303,0.5469547951520982
72,4128.843271411955,0.8650044394513201,0.5454656038945769
73,4124.488924022764,0.8688096834399406,0.5477418892381606
74,4122.158340442926,0.8670157827024481,0.5463302389346595
75,4118.483126569539,0.8657654882490442,0.5463470994304488
76,4125.614007160068,0.8655118053164694,0.544806314009935
77,4119.517949279398,0.868066754851686,0.5463284345130536
78,4121.995413586497,0.869407650352438,0.5479912936892628
79,4115.341416053474,0.866254733904724,0.5456913812175913
80,4113.862998537719,0.8674869081486583,0.5469800269896139
81,4120.222421403974,0.8682117165274431,0.5481319274348027
82,4109.048673257232,0.8617790421657274,0.5430290596544748
83,4112.29640147835,0.8666171380941163,0.546644481119923
84,4110.556564383209,0.8681573558990342,0.5478827344675911
85,4110.183389693499,0.8652581223838948,0.5453101315158867
86,4111.681571930647,0.8653306032217732,0.5459936329535527
87,4110.379114534706,0.8672694656350227,0.5474512949930148
88,4106.757931046188,0.8632467791327668,0.5441168949466443
89,4103.634616486728,0.8661641328573758,0.5471013726533932
90,4108.596409909427,0.8657473680395745,0.5467280499718643
91,4100.368655718863,0.8683385579937304,0.5488650539309489
92,4101.483743015677,0.8658923297153315,0.5457931735983268
93,4103.594356678426,0.8650588000797289,0.5463460359753317
94,4103.792531341314,0.8665990178846468,0.5454590988019389
95,4101.514708809555,0.8683929186221393,0.5480286344882319
96,4099.134118273854,0.863518582274811,0.5445361230273786
97,4100.089396204799,0.8689184046967583,0.5489645272349011
98,4106.203822832555,0.8701686991501622,0.5506240077940343
99,4095.3661975339055,0.866725859350934,0.5474885524777882
