epoch,loss,hitRatio,ndcg
0,2542.750118613243,0.10380794701986755,0.04547843003700215
1,2429.179566591978,0.11639072847682119,0.053578158801712454
2,2238.0996847450733,0.3036423841059603,0.15532007428184044
3,1847.9078898131847,0.39503311258278145,0.21646267826231194
4,1732.050556063652,0.42582781456953644,0.2345024615029256
5,1668.3664156794548,0.44403973509933775,0.24508715880620424
6,1594.1633443832397,0.46175496688741724,0.2571702729768763
7,1517.4174455702305,0.4821192052980132,0.26838046050240594
8,1444.230723336339,0.508774834437086,0.2849196870300175
9,1380.0697947740555,0.5415562913907285,0.30234426095316747
10,1322.4452769458294,0.554635761589404,0.3141773069736219
11,1275.764583453536,0.5733443708609272,0.32576244705655394
12,1232.400280252099,0.5870860927152318,0.33604509730004056
13,1195.7367728352547,0.6018211920529801,0.3463984031411793
14,1163.9279849976301,0.6089403973509934,0.35209050950524085
15,1135.8912449777126,0.6163907284768212,0.3577593372638625
16,1111.9094666689634,0.6259933774834437,0.36582805037289456
17,1090.2711222022772,0.6321192052980132,0.37001946498071053
18,1073.0232081264257,0.6384105960264901,0.37402208396469666
19,1054.063504755497,0.6437086092715232,0.37962794462555094
20,1038.8147356063128,0.6458609271523179,0.3817480316288041
21,1023.2678981721401,0.6506622516556292,0.38307801248244117
22,1011.4289447516203,0.6531456953642384,0.38641700037931065
23,999.6533744633198,0.652317880794702,0.38696563431929965
24,987.0673332959414,0.6552980132450331,0.3888320533009098
25,979.2284419238567,0.6544701986754967,0.38951701624701246
26,969.3903862088919,0.6586092715231788,0.39064847758279664
27,961.854287609458,0.6624172185430464,0.3929391208805896
28,952.6366165727377,0.6645695364238411,0.3950598309696494
29,945.4578777253628,0.6663907284768212,0.39402021623482064
30,939.147561147809,0.6663907284768212,0.39540951960604137
31,931.8921532779932,0.6687086092715232,0.3978166235248479
32,926.8136041164398,0.6662251655629139,0.3973421048312483
33,921.4247809499502,0.6673841059602649,0.3994799567041341
34,916.0271536558867,0.6693708609271524,0.40181680273172915
35,911.4715946018696,0.668046357615894,0.4016653747905226
36,906.7202865332365,0.6653973509933775,0.401681268243013
37,901.8297001570463,0.668046357615894,0.4026127216305819
38,897.883757174015,0.6718543046357616,0.40526177270493724
39,892.6529475301504,0.6662251655629139,0.4028242385101599
40,889.8628731966019,0.6663907284768212,0.40292218929129986
41,886.146373718977,0.6652317880794701,0.40273109413461355
42,882.199519187212,0.6688741721854304,0.40309480858869207
43,880.7046328932047,0.6690397350993378,0.4032233474131239
44,876.03792989254,0.670364238410596,0.40415342436075397
45,873.1997968703508,0.6693708609271524,0.40281909714530056
46,870.3691465556622,0.6695364238410596,0.40318999061732924
47,868.0893380790949,0.6685430463576159,0.4014058930584199
48,866.1521068811417,0.6665562913907285,0.40267476425067306
49,863.4195521920919,0.6650662251655629,0.4028374910257101
50,860.8712372481823,0.6672185430463576,0.40303905004577145
51,858.4975763559341,0.6685430463576159,0.4038396727300735
52,856.9373758807778,0.6667218543046357,0.4046905251142444
53,853.7605405375361,0.6678807947019868,0.40419031153660623
54,852.2318917661905,0.668046357615894,0.40496076818033633
55,851.0938396453857,0.6675496688741722,0.40471322832416645
56,850.1146517693996,0.6655629139072847,0.4037319629956492
57,846.8346857726574,0.6690397350993378,0.4046518292917068
58,845.4168075174093,0.6687086092715232,0.40611354784033993
59,843.9255277365446,0.6693708609271524,0.4054028259606951
60,841.7890425473452,0.6705298013245033,0.4053317466896516
61,840.721602872014,0.6682119205298013,0.4037663725519915
62,839.1528201401234,0.6678807947019868,0.4044077646393372
63,837.901209667325,0.6687086092715232,0.40495831602617205
64,836.4806675165892,0.6677152317880795,0.4032085740562824
65,836.6360510736704,0.6693708609271524,0.40387915253674456
66,832.5248577296734,0.6701986754966888,0.4052918435093745
67,832.1295742094517,0.6690397350993378,0.40575453270886425
68,831.6466393396258,0.6685430463576159,0.4046829719492953
69,829.7444949969649,0.6693708609271524,0.4060116992407355
70,829.5063106119633,0.6705298013245033,0.4076778966352341
71,827.7293927595019,0.6673841059602649,0.40618089331676865
72,827.0838233977556,0.6711920529801324,0.4071959030146115
73,825.160895973444,0.6710264900662252,0.4082189671275393
74,825.7685836181045,0.668046357615894,0.4063073395331975
75,824.0154019668698,0.6665562913907285,0.4046446684220291
76,822.9349520877004,0.6682119205298013,0.40628048327790844
77,822.4486826136708,0.6716887417218543,0.40662760832578626
78,821.8043332695961,0.6708609271523179,0.40801973639298295
79,820.458961263299,0.6635761589403973,0.4033630000058118
80,818.7868708521128,0.6682119205298013,0.4048290447083998
81,818.9808914661407,0.6672185430463576,0.4038914123490848
82,816.9921785369515,0.6655629139072847,0.4020818458344829
83,817.0004993453622,0.6675496688741722,0.4056902179327551
84,816.311516314745,0.6662251655629139,0.40488800110718554
85,815.9612362384796,0.6670529801324503,0.4043585748396213
86,814.700656734407,0.6657284768211921,0.40465557808355523
87,813.7273235917091,0.6649006622516557,0.4043073367758417
88,813.6466515734792,0.6667218543046357,0.4036376113864144
89,812.3660222068429,0.6634105960264901,0.402703559581259
90,811.1744140982628,0.6662251655629139,0.40425490406226566
91,811.5748963877559,0.6645695364238411,0.402751343260318
92,811.2616029754281,0.6658940397350993,0.40393395457697345
93,810.7041128352284,0.6667218543046357,0.40424366435977904
94,809.5096046254039,0.6677152317880795,0.4057463304028707
95,809.8325819075108,0.6672185430463576,0.4055868018283507
96,807.4992808401585,0.668046357615894,0.40346573088288173
97,808.312251009047,0.6677152317880795,0.40413339191947945
98,807.0942328646779,0.6695364238410596,0.4060000846057884
99,805.7050126641989,0.6697019867549668,0.40461677571084914
