epoch,loss,hitRatio,ndcg
0,7181.309673681855,0.44288079470198677,0.24533749677791358
1,6880.347041323781,0.4478476821192053,0.24813601421254566
2,6793.9153268784285,0.4610927152317881,0.25554119043239737
3,6602.841216877103,0.4943708609271523,0.27204659201748727
4,6316.868564710021,0.5114238410596027,0.2832596805319822
5,6117.879940181971,0.53658940397351,0.29743369845332623
6,5953.593964800239,0.555794701986755,0.31044651270456397
7,5850.92539909482,0.5581125827814569,0.31123965929544006
8,5782.028364807367,0.5697019867549669,0.32171767081997327
9,5734.294690012932,0.5769867549668874,0.3249536677207277
10,5689.860912129283,0.5766556291390729,0.3268032995555473
11,5648.448525592685,0.5798013245033112,0.33040693386198133
12,5601.799098983407,0.580794701986755,0.3325054404685875
13,5557.073163419962,0.5870860927152318,0.3367158401821085
14,5514.935180261731,0.5905629139072848,0.33794936805234604
15,5471.073275476694,0.5915562913907285,0.33874016381076655
16,5431.691640257835,0.598841059602649,0.34397203733049564
17,5397.033488109708,0.6029801324503311,0.34524249434461285
18,5369.030305862427,0.6036423841059603,0.34755518925799733
19,5336.012344926596,0.6048013245033113,0.3465893406054028
20,5312.428207814693,0.6153973509933774,0.3524225747211235
21,5279.517087131739,0.6124172185430463,0.351267291162625
22,5260.209544450045,0.6132450331125828,0.3519585531200608
23,5238.2651448994875,0.6173841059602649,0.3538123030527603
24,5211.243355795741,0.6155629139072848,0.3534317259631839
25,5198.196398720145,0.616887417218543,0.35441185184632484
26,5172.721687451005,0.6187086092715232,0.3575083423456372
27,5160.450367316604,0.6163907284768212,0.3543837989267548
28,5135.448959618807,0.6240066225165563,0.3587224809970443
29,5122.39671176672,0.6246688741721854,0.35978585537412655
30,5109.962906166911,0.6243377483443708,0.3593845099123434
31,5089.247101098299,0.6228476821192053,0.35968059892410964
32,5079.810251280665,0.6225165562913907,0.3594723951501748
33,5067.302100867033,0.6274834437086093,0.3628510047370991
34,5056.526454657316,0.6254966887417218,0.3635314029255565
35,5041.510554358363,0.6327814569536424,0.36585884291901866
36,5031.751657947898,0.6311258278145695,0.3662396409147702
37,5017.368230029941,0.6324503311258278,0.36650633738806226
38,5006.573798939586,0.6332781456953642,0.3682796033416414
39,4991.6180434674025,0.6341059602649006,0.36754555700393526
40,4986.358733922243,0.6281456953642384,0.3681640770963647
41,4972.377122506499,0.626158940397351,0.3655111649022482
42,4963.072764590383,0.631953642384106,0.3657951524960921
43,4955.348339751363,0.6246688741721854,0.36532653257740294
44,4944.968168869615,0.635430463576159,0.3709808418741734
45,4939.729272276163,0.6281456953642384,0.3660616797004067
46,4932.022676065564,0.6293046357615895,0.3639482886255331
47,4920.308523744345,0.6269867549668874,0.365466183891573
48,4916.510464206338,0.6263245033112583,0.36428555306278315
49,4904.7560063153505,0.6291390728476821,0.36676716519228253
50,4896.824153885245,0.6296357615894039,0.36760303826358415
51,4889.245184466243,0.6258278145695364,0.3633329423224055
52,4886.43669423461,0.6294701986754967,0.3672922741210944
53,4872.6294080019,0.6311258278145695,0.3668320802508913
54,4867.178256571293,0.6286423841059603,0.36607315153518166
55,4866.175239369273,0.633112582781457,0.3692880283906644
56,4860.1045102626085,0.6309602649006623,0.36835790526024553
57,4851.58229611814,0.6321192052980132,0.3685835476450053
58,4845.66171233356,0.6307947019867549,0.36872352909634304
59,4842.815910488367,0.6296357615894039,0.36735539696785036
60,4834.561597570777,0.6269867549668874,0.36610313814541423
61,4829.688068509102,0.6384105960264901,0.37235028644357726
62,4826.246984839439,0.6415562913907285,0.37271488605834846
63,4818.584157213569,0.627317880794702,0.36762381707314595
64,4815.99535445869,0.6283112582781457,0.36683179188417314
65,4814.7937701791525,0.6283112582781457,0.36462817686066057
66,4800.369959369302,0.6344370860927152,0.36700881177804384
67,4799.812302559614,0.6269867549668874,0.3669629021817364
68,4795.963124975562,0.6347682119205298,0.37211598056766254
69,4790.7634994238615,0.6336092715231788,0.37014358916827805
70,4787.7133756279945,0.6253311258278146,0.36592995032664344
71,4783.5227605476975,0.6231788079470199,0.3626954160673805
72,4779.711599133909,0.6314569536423841,0.36742469417216295
73,4774.545091629028,0.6274834437086093,0.3659227546819793
74,4771.275168836117,0.6306291390728477,0.369901656687723
75,4770.4686229527,0.6288079470198675,0.37065152550625785
76,4763.872638300061,0.6299668874172185,0.3684526810551651
77,4762.4141252189875,0.6309602649006623,0.36958615204640205
78,4759.383514970541,0.6283112582781457,0.37067916730475536
79,4756.662820830941,0.625,0.367627610750974
80,4748.952502384782,0.6311258278145695,0.3699037266650186
81,4746.282758966088,0.6322847682119205,0.37158140850747984
82,4739.407463312149,0.6266556291390728,0.3687307695472526
83,4742.081144794822,0.6279801324503311,0.3709344846437701
84,4737.416344612837,0.6298013245033113,0.36879293614374975
85,4736.880448430777,0.6248344370860928,0.3675803240433955
86,4736.774319708347,0.6298013245033113,0.36904247180419464
87,4726.790310308337,0.6291390728476821,0.3692546129518009
88,4727.242100954056,0.6274834437086093,0.3701986000302942
89,4721.836714863777,0.6326158940397351,0.3705821265552225
90,4719.010207250714,0.6357615894039735,0.370261201087585
91,4716.1485683918,0.6360927152317881,0.3728600676941322
92,4717.381110936403,0.6302980132450331,0.3721452176352847
93,4711.063898667693,0.6306291390728477,0.3704400820017543
94,4714.952704414725,0.6341059602649006,0.3696108569932649
95,4714.082847252488,0.6311258278145695,0.3707149956669062
96,4704.522141337395,0.635430463576159,0.3719494196393016
97,4707.5331835746765,0.6357615894039735,0.37109597140706924
98,4699.737880259752,0.6322847682119205,0.36996862750717957
99,4699.156429722905,0.6283112582781457,0.3689274231621249
