epoch,loss,hitRatio,ndcg
0,1835.3432185351849,0.44817880794701986,0.2492189681698876
1,1724.833363890648,0.44817880794701986,0.24855360051369227
2,1709.562187641859,0.45397350993377483,0.25048694961640106
3,1700.0533067286015,0.45711920529801325,0.2565898925243241
4,1677.2940147519112,0.47880794701986756,0.2667361435316621
5,1636.3098724782467,0.49370860927152316,0.2718370793000529
6,1596.7221976220608,0.5008278145695364,0.27791905637393305
7,1563.937437683344,0.5201986754966887,0.28536152345681576
8,1536.0040993988514,0.5389072847682119,0.2972370294388975
9,1513.861479461193,0.5498344370860927,0.3052202409131736
10,1496.2797391563654,0.552317880794702,0.30888403826295024
11,1482.7508077919483,0.5552980132450331,0.3133663556783215
12,1470.3694230169058,0.5649006622516556,0.3186242554159085
13,1459.6974265128374,0.5647350993377483,0.3179688855074281
14,1451.0635458379984,0.5690397350993377,0.3206966216600894
15,1442.7974743396044,0.5753311258278145,0.32482810333952145
16,1434.866554826498,0.5774834437086093,0.3259182716695949
17,1426.7679623812437,0.5776490066225165,0.32318668413015916
18,1420.237197175622,0.5806291390728476,0.32741691108873056
19,1410.6759969592094,0.5824503311258278,0.32794318987822063
20,1404.4918353110552,0.588907284768212,0.33179601383922014
21,1395.5464658886194,0.5925496688741722,0.32963931514861294
22,1389.615613117814,0.5903973509933775,0.333160468071166
23,1382.4357904791832,0.5942052980132451,0.33319283900989916
24,1374.541963353753,0.5950331125827815,0.33559532747992443
25,1369.3348472863436,0.5938741721854305,0.3371561938329361
26,1361.8817654699087,0.6029801324503311,0.3384350073841586
27,1357.3819891512394,0.6038079470198675,0.340708457072011
28,1350.2555528879166,0.6056291390728477,0.34157185564146897
29,1344.9641926288605,0.5995033112582782,0.3421997770284508
30,1340.652370840311,0.606953642384106,0.3446956178568357
31,1335.033869922161,0.6091059602649007,0.34460328132151746
32,1330.0849968343973,0.6119205298013245,0.34792287683565576
33,1325.7375529408455,0.6117549668874173,0.34846177941387707
34,1321.9174900650978,0.608112582781457,0.34621122905532625
35,1316.5385986715555,0.6152317880794702,0.34733221934276864
36,1312.3370377272367,0.6175496688741722,0.3509409719418057
37,1307.87955750525,0.6127483443708609,0.348427431393349
38,1304.2265570908785,0.6167218543046358,0.3508496167446724
39,1299.438531205058,0.6158940397350994,0.34953822439681403
40,1295.9529277831316,0.6192052980132451,0.35121079207458306
41,1291.949789300561,0.6192052980132451,0.3510252970433236
42,1288.0776656866074,0.6198675496688741,0.35131432612102054
43,1285.134321078658,0.6158940397350994,0.34903313215240633
44,1280.5565862953663,0.6198675496688741,0.3521557951944046
45,1277.6277692615986,0.6200331125827815,0.35143534880567084
46,1274.5968722105026,0.6190397350993377,0.35320179832992266
47,1270.4867321699858,0.6188741721854305,0.3547858054768901
48,1268.379199296236,0.6216887417218543,0.35538757306412844
49,1264.2289296537638,0.6210264900662251,0.3550640389576839
50,1261.0094370245934,0.6201986754966887,0.35449339810987024
51,1258.3393676280975,0.6182119205298013,0.354960770481711
52,1256.5440721660852,0.6205298013245033,0.35372818306147297
53,1252.661924391985,0.6170529801324504,0.35337553730936955
54,1248.931234702468,0.6183774834437086,0.3535779337592411
55,1247.1303613334894,0.6236754966887417,0.35798271695059364
56,1245.369221508503,0.615728476821192,0.3513524150278025
57,1241.5460763573647,0.6192052980132451,0.35375439512873463
58,1239.0645059645176,0.6235099337748344,0.3570194148807261
59,1237.317188590765,0.6139072847682119,0.3527634538053372
60,1233.3872351497412,0.6188741721854305,0.35458019861289775
61,1232.5341503322124,0.6213576158940397,0.3561740071568143
62,1229.6193401962519,0.6205298013245033,0.3576035699505345
63,1227.6506932973862,0.6210264900662251,0.35608310652104297
64,1225.8041302710772,0.6195364238410596,0.355595766861757
65,1223.7947026640177,0.6187086092715232,0.3559910584747781
66,1218.7997179925442,0.616887417218543,0.35626438432593827
67,1218.1221512407064,0.6200331125827815,0.3563659906822537
68,1216.0015312284231,0.6248344370860928,0.35787821047101465
69,1214.1911610215902,0.6201986754966887,0.3557764622904741
70,1212.6764813959599,0.6201986754966887,0.35783720067593605
71,1210.382164388895,0.6220198675496689,0.3572014808948138
72,1208.5000208616257,0.6233443708609272,0.35903817242349856
73,1206.1218379884958,0.6218543046357616,0.35817956997545036
74,1205.4687116593122,0.6220198675496689,0.3575069526344727
75,1202.9763642400503,0.6197019867549669,0.35685786515781737
76,1201.1135097295046,0.6185430463576159,0.3562352695589165
77,1200.1655588895082,0.6197019867549669,0.3584864232659135
78,1199.091315701604,0.6206953642384105,0.3578649811383217
79,1197.7439849227667,0.6206953642384105,0.3569143521212417
80,1194.9900817126036,0.6253311258278146,0.35803605184992215
81,1193.899190530181,0.6225165562913907,0.35815357838270867
82,1190.957215204835,0.6220198675496689,0.3574198489046462
83,1191.3130925893784,0.6233443708609272,0.35607197925124434
84,1189.3376464992762,0.6188741721854305,0.35495019592218396
85,1187.81868699193,0.6220198675496689,0.3571941227265656
86,1187.317805364728,0.621523178807947,0.3573049158666874
87,1185.1785896271467,0.6228476821192053,0.35868436732410486
88,1184.197431564331,0.6150662251655629,0.3559942617272068
89,1182.3488328754902,0.6185430463576159,0.3566294002286041
90,1180.4994708299637,0.6188741721854305,0.3564977820989037
91,1179.2629899084568,0.6190397350993377,0.35441537158013525
92,1179.101533740759,0.6192052980132451,0.35571010723710283
93,1177.8040265738964,0.6178807947019868,0.3572631616564175
94,1177.6438965201378,0.6160596026490066,0.35381615753923007
95,1175.5811072587967,0.6218543046357616,0.3565085682873554
96,1173.6200125664473,0.6187086092715232,0.35604618149374817
97,1173.2347659170628,0.6188741721854305,0.35447089375100355
98,1171.4621835052967,0.6200331125827815,0.3545769496149791
99,1170.2414842247963,0.616225165562914,0.3509716225162637
