epoch,loss,hitRatio,ndcg
0,1784.1677774488926,0.44884105960264903,0.24836722662223448
1,1702.0610827803612,0.4683774834437086,0.2607293664566295
2,1598.1298650503159,0.506953642384106,0.28277989151055194
3,1511.6677621304989,0.5468543046357616,0.305235407091597
4,1447.2964658737183,0.5716887417218544,0.3201832192701684
5,1400.3196337670088,0.5867549668874172,0.33028653857752716
6,1359.697673857212,0.5968543046357616,0.34073451788775183
7,1328.1268501132727,0.6096026490066225,0.347810637128923
8,1298.2886979579926,0.6188741721854305,0.35699750161073834
9,1273.6222887039185,0.6347682119205298,0.36795143288634446
10,1250.7803502380848,0.6390728476821192,0.37091709409164686
11,1230.4728186577559,0.6425496688741722,0.3728097667518847
12,1210.5939094871283,0.6513245033112582,0.38015496699936924
13,1191.524743244052,0.6518211920529802,0.37887928634236223
14,1174.4543272852898,0.6528145695364238,0.38202472245982966
15,1156.6596666574478,0.6518211920529802,0.38091743350643964
16,1140.6094665974379,0.6531456953642384,0.38146829063313864
17,1124.4980785399675,0.6524834437086092,0.38554427926932106
18,1110.3896442353725,0.6576158940397351,0.3843576248564179
19,1093.673117056489,0.6498344370860927,0.3800595159778613
20,1079.7374290823936,0.6569536423841059,0.38488977352496373
21,1063.9960884004831,0.6509933774834437,0.38256084837924853
22,1050.7411450147629,0.6496688741721854,0.3804478539062567
23,1036.843788817525,0.6428807947019868,0.37682833951583
24,1022.2565553039312,0.6422185430463576,0.38123943460953785
25,1010.859264805913,0.6384105960264901,0.3751157290986743
26,996.8066137433052,0.6370860927152318,0.3734515940088173
27,985.6300536841154,0.6359271523178808,0.37386722249156634
28,971.7549773305655,0.6336092715231788,0.3747907985463688
29,960.8838300704956,0.6336092715231788,0.3730049833580461
30,951.1451123505831,0.6311258278145695,0.3731343383077215
31,938.4322125613689,0.6228476821192053,0.3672468616701249
32,929.4724339097738,0.6211920529801325,0.36696477086809154
33,920.2328681051731,0.625,0.3729562444079694
34,911.2483388930559,0.6142384105960265,0.36623311070374504
35,900.8317928910255,0.6193708609271523,0.36616430463166105
36,893.2890942245722,0.6163907284768212,0.36399977341500206
37,883.470038458705,0.6086092715231788,0.36103186777173724
38,876.2241565138102,0.6160596026490066,0.3650192269012545
39,866.573363289237,0.6132450331125828,0.3645553442524667
40,860.1955443918705,0.6028145695364239,0.3590726904961741
41,852.7678413838148,0.6049668874172185,0.3583635255898158
42,846.2959576398134,0.6056291390728477,0.35842860426972567
43,840.9322284832597,0.6079470198675496,0.3575200039063907
44,832.769509755075,0.6109271523178808,0.35950635168219486
45,827.6618297249079,0.6044701986754967,0.3555586849743316
46,821.9108290821314,0.5975165562913908,0.3562392472126762
47,815.5444558188319,0.6039735099337749,0.3554549776288556
48,810.8058888465166,0.6003311258278146,0.3545387634398069
49,805.4756243675947,0.5956953642384106,0.3525790084253115
50,799.5310931503773,0.605794701986755,0.35775347750363307
51,794.5189168974757,0.6067880794701986,0.3554737778762108
52,790.0159415602684,0.5975165562913908,0.35217506522512343
53,785.3451499342918,0.6023178807947019,0.3541400997058642
54,780.7813866958022,0.6014900662251655,0.35150103265421506
55,777.019033767283,0.5995033112582782,0.35293630379151925
56,773.2784469202161,0.5981788079470198,0.3506227170831632
57,768.3251652345061,0.5996688741721854,0.35281441489563703
58,763.8441513925791,0.5960264900662252,0.35222362912054783
59,760.3625309467316,0.5986754966887418,0.35401190156983814
60,757.0350072830915,0.5849337748344371,0.34503821570967463
61,752.2975445836782,0.5932119205298013,0.35235429424308373
62,748.9138038083911,0.595364238410596,0.3509330710888028
63,745.5549546480179,0.5960264900662252,0.3513044507274502
64,742.5077955126762,0.6,0.3553551438877231
65,739.8404569029808,0.6026490066225165,0.355365065209954
66,734.5210796147585,0.589569536423841,0.3493194922462224
67,732.4591702073812,0.5958609271523179,0.35346080516884804
68,729.6720595881343,0.5903973509933775,0.34711318589593587
69,726.0124532878399,0.5947019867549669,0.3508606227475543
70,722.9816012755036,0.5872516556291391,0.34776968619765275
71,720.7649804502726,0.596523178807947,0.35441731649210895
72,718.3300818875432,0.5839403973509933,0.34346689692325694
73,715.0021339431405,0.5958609271523179,0.3523376825908465
74,712.7903355658054,0.597682119205298,0.3501489641896856
75,710.2647408768535,0.5855960264900663,0.3424804594848075
76,706.385965064168,0.5867549668874172,0.34722029384205877
77,705.8242393061519,0.5865894039735099,0.34516227588694076
78,701.9487702324986,0.5927152317880795,0.35145616024905413
79,700.7742334231734,0.581953642384106,0.343605005696867
80,696.7576146349311,0.5897350993377484,0.3462904436544602
81,696.5168499723077,0.5751655629139073,0.3410308025803981
82,692.532358199358,0.5947019867549669,0.3514595053959208
83,690.9698259904981,0.590066225165563,0.34800969933314163
84,688.5845310911536,0.5938741721854305,0.35250534568601494
85,687.4305487498641,0.5885761589403974,0.3494650689858118
86,685.0877532586455,0.5842715231788079,0.3468715412756569
87,681.444016456604,0.5844370860927153,0.34779191977196544
88,680.7520347237587,0.5865894039735099,0.3468701066039968
89,678.6819588989019,0.5816225165562914,0.34649684988284124
90,675.3770415782928,0.5799668874172186,0.34700159944268855
91,674.1491032019258,0.5854304635761589,0.3468627294975295
92,672.2006497085094,0.5841059602649007,0.34478738979652424
93,670.5763209313154,0.5812913907284768,0.34431707306944914
94,668.9524121358991,0.5829470198675497,0.3455411368750611
95,667.1726471334696,0.5824503311258278,0.34206768564187906
96,664.3236142322421,0.581953642384106,0.34329349865277575
97,663.8291796147823,0.5774834437086093,0.34047813691561296
98,660.8355782851577,0.5821192052980132,0.34210979836873623
99,659.7476784437895,0.583112582781457,0.3419110752599113
